{
  "page": 1,
  "total_results": 369805,
  "total_pages": 18491,
  "results": [
    {
      "vote_count": 1853,
      "id": 351286,
      "video": false,
      "vote_average": 6.6,
      "title": "Jurassic World : Fallen Kingdom",
      "popularity": 240.222,
      "poster_path": "\/9EwjVrXqYmm3Q5xWJyG1TmtTF8j.jpg",
      "original_language": "en",
      "original_title": "Jurassic World: Fallen Kingdom",
      "genre_ids": [
        28,
        12,
        878
      ],
      "backdrop_path": "\/gBmrsugfWpiXRh13Vo3j0WW55qD.jpg",
      "adult": false,
      "overview": "Cela fait maintenant quatre ans que les dinosaures se sont échappés de leurs enclos et ont détruit le parc à thème et complexe de luxe Jurassic World. Isla Nublar a été abandonnée par les humains alors que les dinosaures survivants sont livrés à eux-mêmes dans la jungle. Lorsque le volcan inactif de l'île commence à rugir, Owen et Claire s’organisent pour sauver les dinosaures restants de l’extinction.  Owen se fait un devoir de retrouver Blue, son principal raptor qui a disparu dans la nature, alors que Claire, qui a maintenant un véritable respect pour ces créatures, s’en fait une mission. Arrivant sur l'île instable alors que la lave commence à pleuvoir, leur expédition découvre une conspiration qui pourrait ramener toute notre planète à un ordre périlleux jamais vu depuis la préhistoire.",
      "release_date": "2018-06-06"
    },
    {
      "vote_count": 480,
      "id": 363088,
      "video": false,
      "vote_average": 7.2,
      "title": "Ant-Man et la Guêpe",
      "popularity": 183.122,
      "poster_path": "\/r3Vapr4sdXOhHBThTNtfuijKe5V.jpg",
      "original_language": "en",
      "original_title": "Ant-Man and the Wasp",
      "genre_ids": [
        28,
        12,
        14,
        35,
        878
      ],
      "backdrop_path": "\/6P3c80EOm7BodndGBUAJHHsHKrp.jpg",
      "adult": false,
      "overview": "Après les événements survenus dans Captain America : Civil War, Scott Lang a bien du mal à concilier sa vie de super-héros et ses responsabilités de père. Mais ses réflexions sur les conséquences de ses choix tournent court lorsque Hope van Dyne et le Dr Hank Pym lui confient une nouvelle mission urgente… Scott va devoir renfiler son costume et apprendre à se battre aux côtés de La Guêpe afin de faire la lumière sur des secrets enfouis de longue date…",
      "release_date": "2018-07-04"
    },
    {
      "vote_count": 7284,
      "id": 284053,
      "video": false,
      "vote_average": 7.5,
      "title": "Thor : Ragnarok",
      "popularity": 134.503,
      "poster_path": "\/pNLGDvsJyTRdjVUJdc4iy6BQYK5.jpg",
      "original_language": "en",
      "original_title": "Thor: Ragnarok",
      "genre_ids": [
        28,
        12,
        35
      ],
      "backdrop_path": "\/kaIfm5ryEOwYg8mLbq8HkPuM1Fo.jpg",
      "adult": false,
      "overview": "Thor est emprisonné de l’autre côté de l’univers sans son puissant marteau et se retrouve engagé dans une course contre le temps pour rejoindre Asgard et arrêter Ragnarok – la destruction de son monde natal et la fin de la civilisation Asgardienne – des mains d’une toute nouvelle menace, l’impitoyable Hela. Mais d’abord, il doit survivre à une compétition meurtrière de gladiateurs qui l’oppose à son ancien allié et compagnon Avenger – l’Incroyable Hulk !",
      "release_date": "2017-10-25"
    },
    {
      "vote_count": 5639,
      "id": 299536,
      "video": false,
      "vote_average": 8.4,
      "title": "Avengers : Infinity War",
      "popularity": 130.119,
      "poster_path": "\/uIMcxe36h9K3K1RFuhCtdo0UiY9.jpg",
      "original_language": "en",
      "original_title": "Avengers: Infinity War",
      "genre_ids": [
        12,
        878,
        14,
        28
      ],
      "backdrop_path": "\/bOGkgRGdhrBYJSLpXaxhXVstddV.jpg",
      "adult": false,
      "overview": "Les Avengers et leurs alliés devront être prêts à tout sacrifier pour neutraliser le redoutable Thanos avant que son attaque éclair ne conduise à la destruction complète de l’univers.",
      "release_date": "2018-04-25"
    },
    {
      "vote_count": 1077,
      "id": 260513,
      "video": false,
      "vote_average": 7.7,
      "title": "Les Indestructibles 2",
      "popularity": 122.314,
      "poster_path": "\/Apish2YD3QIAepzxZ96VLkqEZo3.jpg",
      "original_language": "en",
      "original_title": "Incredibles 2",
      "genre_ids": [
        28,
        12,
        16,
        10751
      ],
      "backdrop_path": "\/mabuNsGJgRuCTuGqjFkWe1xdu19.jpg",
      "adult": false,
      "overview": "Notre famille de super-héros préférée est de retour! Cette fois c’est Hélène qui se retrouve sur le devant de la scène laissant à Bob le soin de mener à bien les mille et une missions de la vie quotidienne et de s’occuper de Violette, Flèche et de bébé Jack-Jack. C’est un changement de rythme difficile pour la famille d’autant que personne ne mesure réellement l’étendue des incroyables pouvoirs du petit dernier… Lorsqu’un nouvel ennemi fait surface, la famille et Frozone vont devoir s’allier comme jamais pour déjouer son plan machiavélique.",
      "release_date": "2018-06-14"
    },
    {
      "vote_count": 2903,
      "id": 333339,
      "video": false,
      "vote_average": 7.7,
      "title": "Ready Player One",
      "popularity": 113.148,
      "poster_path": "\/832ngDVXhOVp6HBnuMMeeWTrGXN.jpg",
      "original_language": "en",
      "original_title": "Ready Player One",
      "genre_ids": [
        12,
        878,
        14
      ],
      "backdrop_path": "\/q7fXcrDPJcf6t3rzutaNwTzuKP1.jpg",
      "adult": false,
      "overview": "En 2045, Le monde est au bord du chaos. Les êtres humains se réfugient dans l'OASIS, univers virtuel mis au point par le brillant et excentrique James Halliday. Avant de disparaître, celui-ci a décidé de léguer son immense fortune à quiconque découvrira l'œuf de Pâques numérique qu'il a pris soin de dissimuler dans l'OASIS. L'appât du gain provoque une compétition planétaire. Mais lorsqu'un jeune garçon, Wade Watts, qui n'a pourtant pas le profil d'un héros, décide de participer à la chasse au trésor, il est plongé dans un monde parallèle à la fois mystérieux et inquiétant…",
      "release_date": "2018-03-28"
    },
    {
      "vote_count": 2124,
      "id": 447332,
      "video": false,
      "vote_average": 7.2,
      "title": "Sans un bruit",
      "popularity": 101.146,
      "poster_path": "\/xlJCSHnR7sbaibX3OY97vEmsjxt.jpg",
      "original_language": "en",
      "original_title": "A Quiet Place",
      "genre_ids": [
        18,
        27,
        53,
        878
      ],
      "backdrop_path": "\/roYyPiQDQKmIKUEhO912693tSja.jpg",
      "adult": false,
      "overview": "Une famille tente de survivre sous la menace de mystérieuses créatures qui attaquent au moindre bruit. S’ils vous entendent, il est déjà trop tard.",
      "release_date": "2018-04-03"
    },
    {
      "vote_count": 2271,
      "id": 337167,
      "video": false,
      "vote_average": 6,
      "title": "Cinquante nuances plus claires",
      "popularity": 98.37,
      "poster_path": "\/dACJtXkABwEBdX3FUrpHgJdlu9r.jpg",
      "original_language": "en",
      "original_title": "Fifty Shades Freed",
      "genre_ids": [
        18,
        10749
      ],
      "backdrop_path": "\/9ywA15OAiwjSTvg3cBs9B7kOCBF.jpg",
      "adult": false,
      "overview": "Plus heureux que jamais, Anastasia et Christian forment désormais un couple solide. Cependant, leur bonheur est troublé par Jack Hyde, l'ancien patron d'Anastasia et par une nouvelle qui pourrait détruire leur relation.",
      "release_date": "2018-01-17"
    },
    {
      "vote_count": 1274,
      "id": 427641,
      "video": false,
      "vote_average": 6.1,
      "title": "Rampage : Hors de contrôle",
      "popularity": 93.647,
      "poster_path": "\/b65Pu2OnEtipShATUzcAkkq7Tu6.jpg",
      "original_language": "en",
      "original_title": "Rampage",
      "genre_ids": [
        28,
        12,
        878,
        14
      ],
      "backdrop_path": "\/wrqUiMXttHE4UBFMhLHlN601MZh.jpg",
      "adult": false,
      "overview": "Primatologue de profession, David Okoye a plus de mal à nouer des liens avec ses semblables qu'avec les singes. Pas étonnant qu'il se soit pris d'affection pour George, adorable gorille d'une intelligence hors du commun, dont il s'occupe depuis sa naissance. Mais suite à une expérience génétique catastrophique, George se métamorphose en monstre incontrôlable. Et il n'est pas le seul puisque d'autres animaux se transforment en prédateurs enragés aux quatre coins du pays, détruisant tout sur leur passage. Okoye décide alors de travailler d'arrache-pied avec une généticienne pour mettre au point un antidote. Pourront-ils à temps empêcher la planète d'être ravagée ?",
      "release_date": "2018-04-12"
    },
    {
      "vote_count": 226,
      "id": 442249,
      "video": false,
      "vote_average": 6.2,
      "title": "American Nightmare 4 : Les Origines",
      "popularity": 90.747,
      "poster_path": "\/cDpWqGxQ2QU1qBuzDNIl0mtLsdq.jpg",
      "original_language": "en",
      "original_title": "The First Purge",
      "genre_ids": [
        28,
        27,
        878,
        53
      ],
      "backdrop_path": "\/dnaitaoCh8MftfYEVnprcuYExZp.jpg",
      "adult": false,
      "overview": "Derrière chaque tradition se dissimule une révolution. Cette année, lors de Fête de l’Indépendance, découvrez comment sont nées les 12 heures d’anarchie annuelle. Soyez les bienvenus dans le mouvement qui a commencé comme une simple expérience : AMERICAN NIGHTMARE 4 : LES ORIGINES.  Pour faire passer le taux de criminalité en-dessous de 1 % le reste de l’année, les « Nouveaux Pères Fondateurs » testent une théorie sociale qui permettrait d’évacuer la violence durant une nuit dans une ville isolée. Mais lorsque l’agressivité des tyrans rencontre la rage de communautés marginalisées, le phénomène va s’étendre au-delà des frontières de la ville test jusqu’à atteindre la nation entière...",
      "release_date": "2018-07-04"
    },
    {
      "vote_count": 67,
      "id": 400155,
      "video": false,
      "vote_average": 7.2,
      "title": "Hotel Transylvanie 3 : Des vacances monstrueuses",
      "popularity": 89.722,
      "poster_path": "\/d7IGulS1rIsW1yXLVwJ5kcY7QQF.jpg",
      "original_language": "en",
      "original_title": "Hotel Transylvania 3: Summer Vacation",
      "genre_ids": [
        10751,
        14,
        35,
        16
      ],
      "backdrop_path": "\/m03jul0YdVEOFXEQVUv6pOVQYGL.jpg",
      "adult": false,
      "overview": "Notre famille de monstres préférée s’embarque pour une croisière de rêve afin que Drac puisse enfin souffler un peu et savourer des vacances au lieu de s’occuper de tout le monde à l’hôtel. Tout s’annonce à merveille pour la petite famille, entre matchs de volley monstres, excursions exotiques et séances de bronzette au clair de lune… Mais les vacances idéales virent vite au cauchemar lorsque Mavis se rend compte que Drac est tombé sous le charme de la mystérieuse Ericka, la capitaine du navire, dont le terrible secret peut détruire tous les monstres…",
      "release_date": "2018-07-12"
    },
    {
      "vote_count": 80,
      "id": 447200,
      "video": false,
      "vote_average": 6.1,
      "title": "Skyscraper",
      "popularity": 84.571,
      "poster_path": "\/3NL1FiTEhU4SWOuWk8lkVCbmnYm.jpg",
      "original_language": "en",
      "original_title": "Skyscraper",
      "genre_ids": [
        28,
        53,
        18
      ],
      "backdrop_path": "\/oMKFQmoVgB69fyXfSMu0lGlHJP2.jpg",
      "adult": false,
      "overview": "Will Ford, ancien leader de l’équipe de libération d’otages du FBI, ancien vétéran de guerre, et maintenant responsable de la sécurité des gratte-ciels est affecté en Chine. Il découvre le bâtiment le plus grand et le plus sûr du monde soudainement en feu et est accusé de l’avoir déclenché. Désormais considéré comme un fugitif, Will doit trouver les coupables, rétablir sa réputation et sauver sa famille emprisonnée à l’intérieur du bâtiment…au-dessus de la ligne de feu.",
      "release_date": "2018-07-11"
    },
    {
      "vote_count": 17,
      "id": 353081,
      "video": false,
      "vote_average": 0,
      "title": "Mission : Impossible - Fallout",
      "popularity": 82.254,
      "poster_path": "\/zaHa4PcdAofo5AtC3QB2fszpKVY.jpg",
      "original_language": "en",
      "original_title": "Mission: Impossible - Fallout",
      "genre_ids": [
        12,
        28,
        53
      ],
      "backdrop_path": "\/5qxePyMYDisLe8rJiBYX8HKEyv2.jpg",
      "adult": false,
      "overview": "Les meilleures intentions finissent souvent par se retourner contre vous…  Dans MISSION : IMPOSSIBLE – FALLOUT, Ethan Hunt accompagné de son équipe de l’IMF – Impossible Mission Force et de quelques fidèles alliées sont lancés dans une course contre la montre, suite au terrible échec d’une mission.",
      "release_date": "2018-07-25"
    },
    {
      "vote_count": 8484,
      "id": 102899,
      "video": false,
      "vote_average": 7,
      "title": "Ant-Man",
      "popularity": 78.712,
      "poster_path": "\/rS97hUJ1otKTTripGwQ0ujbuIri.jpg",
      "original_language": "en",
      "original_title": "Ant-Man",
      "genre_ids": [
        878,
        28,
        12
      ],
      "backdrop_path": "\/kvXLZqY0Ngl1XSw7EaMQO0C1CCj.jpg",
      "adult": false,
      "overview": "L'histoire d'Ant-Man est celle d'un petit escroc du nom de Scott Lang. Doté d'une capacité étonnante - celle de rétrécir à volonté tout en démultipliant sa force - ce dernier doit embrasser la part de héros qui est en lui afin d'aider son mentor, le docteur Hank Pym, à protéger d'une nouvelle génération de redoutables menaces le secret du spectaculaire costume d'Ant-Man. Contre des obstacles en apparence insurmontables, Pym et Lang, doivent mettre au point - et réussir - un audacieux cambriolage qui pourrait sauver le monde d'une issue fatale…",
      "release_date": "2015-07-14"
    },
    {
      "vote_count": 6780,
      "id": 284054,
      "video": false,
      "vote_average": 7.3,
      "title": "Black Panther",
      "popularity": 78.15,
      "poster_path": "\/g94IcdzPswTYl1ISdgn2EwvaZtt.jpg",
      "original_language": "en",
      "original_title": "Black Panther",
      "genre_ids": [
        28,
        12,
        14,
        878
      ],
      "backdrop_path": "\/b6ZJZHUdMEFECvGiDpJjlfUWela.jpg",
      "adult": false,
      "overview": "Black Panther suit T’Challa qui, après les événements de Captain America : Civil War, retourne chez lui, dans la nation africaine isolée et technologiquement avancée du Wakanda, pour prendre possession du trône. Cependant, quand un vieil ennemi réapparaît sur le radar, le courage de T’Challa en tant que roi et Black Panther est testé quand il est entraîné dans un conflit qui met le sort entier du Wakanda et du monde en danger.",
      "release_date": "2018-02-13"
    },
    {
      "vote_count": 2125,
      "id": 338970,
      "video": false,
      "vote_average": 6.2,
      "title": "Tomb Raider",
      "popularity": 76.587,
      "poster_path": "\/ltOkXWOYZoYstuKrMq44yogotHp.jpg",
      "original_language": "en",
      "original_title": "Tomb Raider",
      "genre_ids": [
        28,
        12,
        14,
        18,
        9648,
        53
      ],
      "backdrop_path": "\/jLYhKjSC8LyXzWZc6VwPjMYP2wy.jpg",
      "adult": false,
      "overview": "Rebelle et indépendante, Lara Croft, 21 ans, n'a jamais cru que son père était mort. Elle décide un jour de se rendre sur l'île mystérieuse où il a été vu pour la dernière fois. Un périple où le danger guette à chaque instant…",
      "release_date": "2018-03-05"
    },
    {
      "vote_count": 2997,
      "id": 383498,
      "video": false,
      "vote_average": 7.6,
      "title": "Deadpool 2",
      "popularity": 76.27,
      "poster_path": "\/ybjooZMNlRBaFNfs52XqONc4Xyw.jpg",
      "original_language": "en",
      "original_title": "Deadpool 2",
      "genre_ids": [
        28,
        35,
        878
      ],
      "backdrop_path": "\/3P52oz9HPQWxcwHOwxtyrVV1LKi.jpg",
      "adult": false,
      "overview": "Après avoir miraculeusement survécu à une violente attaque bovine, un chef de cafétéria défiguré (Wade Wilson) se bat désormais pour réaliser son rêve ; devenir le barman le plus sexy de Mayberry , alors qu’il a complètement perdu son sens du goût.  Pour retrouver les plaisirs pimentés de la vie, et aussi son convecteur temporel, Wade devra affronter des Ninjas, des Yakuza et une horde de chiens méchamment en chaleur.  Au cours d’un voyage autour du monde, il va découvrir l’importance de la famille, de l’amitié et des saveurs, ainsi qu’un goût insoupçonné pour l’aventure. Il finira par remporter le prestigieux mug personnalisé de “Meilleur Coup du Monde”.",
      "release_date": "2018-05-15"
    },
    {
      "vote_count": 2809,
      "id": 238636,
      "video": false,
      "vote_average": 6.6,
      "title": "American Nightmare 2: Anarchy",
      "popularity": 74.325,
      "poster_path": "\/i2fvODsbMQB9fh8VtTkIHC117Me.jpg",
      "original_language": "en",
      "original_title": "The Purge: Anarchy",
      "genre_ids": [
        27,
        53
      ],
      "backdrop_path": "\/zWGAnbxjjwY3xFGuOeR26LGbBlG.jpg",
      "adult": false,
      "overview": "Shane et Liz, formant un jeune couple se retrouvent bloqués dans leur voiture pendant la purge annuelle et ne savent plus quoi faire, pendant ce temps, Eva et Cali sont sauvés de justesse d'un kidnapping par Léo, un homme participant à la purge annuelle, les deux groupes finissent par se retrouver dans la rue et coopèrent pour survivre à cette nuit.",
      "release_date": "2014-07-17"
    },
    {
      "vote_count": 11,
      "id": 318484,
      "video": false,
      "vote_average": 5.3,
      "title": "Qayamat: City Under Threat",
      "popularity": 72.016,
      "poster_path": "\/e6n3Tf86MJgqtF34bLogGOpkNQf.jpg",
      "original_language": "hi",
      "original_title": "Qayamat: City Under Threat",
      "genre_ids": [
        28,
        18,
        80
      ],
      "backdrop_path": "\/bsiSNHnzU9brwsP1hVs1AQMt9hl.jpg",
      "adult": false,
      "overview": "",
      "release_date": "2003-07-11"
    },
    {
      "vote_count": 3502,
      "id": 158015,
      "video": false,
      "vote_average": 6.1,
      "title": "American Nightmare",
      "popularity": 68.56,
      "poster_path": "\/1fiPY0wrMMLs1rTLv56KuYNQiCv.jpg",
      "original_language": "en",
      "original_title": "The Purge",
      "genre_ids": [
        878,
        27,
        53
      ],
      "backdrop_path": "\/1sZ9Nnic1ldHhHttAMDmNxaNM04.jpg",
      "adult": false,
      "overview": "Dans un futur proche, les Etats-Unis sont entrés dans une ère prospère, sans crime ni chômage. Et ce pour une unique raison : tous les ans, pendant une nuit entière, le gouvernement autorise quiconque à se livrer à une violence totale et légale. Cette nuit-là, la police ne répond à aucun appel, les hôpitaux ferment leurs portes. Cette nuit-là, alors que personne ne peut être puni et que le pays est à feu et à sang douze heures durant, une famille se retrouve au coeur de l'horreur alors qu'un étranger vient frapper à sa porte... Réussiront-ils à survivre à la nuit?",
      "release_date": "2013-05-31"
    }
  ]
}
