{
  "page": 1,
  "total_results": 74485,
  "total_pages": 3725,
  "results": [
    {
      "original_name": "The Big Bang Theory",
      "genre_ids": [
        35
      ],
      "name": "The Big Bang Theory",
      "popularity": 233.632,
      "origin_country": [
        "US"
      ],
      "vote_count": 3039,
      "first_air_date": "2007-09-24",
      "backdrop_path": "/nGsNruW3W27V6r4gkyc3iiEGsKR.jpg",
      "original_language": "en",
      "id": 1418,
      "vote_average": 6.8,
      "overview": "Leonard et Sheldon pourraient vous dire tout ce que vous voudriez savoir à propos de la physique quantique. Mais ils seraient bien incapables de vous expliquer quoi que ce soit sur la vie \"réelle\", le quotidien ou les relations humaines... Mais tout va changer avec l'arrivée de la superbe Penny, leur voisine. Ce petit bout de femme, actrice à ses heures et serveuse pour le beurre, va devenir leur professeur de vie !",
      "poster_path": "/ooBGRQBdbGzBxAVfExiO8r7kloA.jpg"
    },
    {
      "original_name": "The 100",
      "genre_ids": [
        18,
        10765
      ],
      "name": "Les 100",
      "popularity": 170.726,
      "origin_country": [
        "US"
      ],
      "vote_count": 1197,
      "first_air_date": "2014-03-19",
      "backdrop_path": "/qYTIuJJ7fIehicAt3bl0vW70Sq6.jpg",
      "original_language": "en",
      "id": 48866,
      "vote_average": 6.4,
      "overview": "Après une apocalypse causée par l'Homme lors d'une troisième Guerre Mondiale, les 318 survivants recensés se réfugient dans des stations spatiales et parviennent à y vivre et à se reproduire, atteignant le nombre de 4000. Mais 97 ans plus tard, le vaisseau mère, The Ark, est en piteux état. Une centaine de jeunes délinquants emprisonnés au fil des années pour des crimes ou des trahisons sont choisis comme cobayes par les autorités pour redescendre sur Terre et tester les chances de survie. Dès leur arrivée, ils découvrent un nouveau monde dangereux mais fascinant...",
      "poster_path": "/zW1k1QYYUXxPBqQigxk4ynbcTYD.jpg"
    },
    {
      "original_name": "Mindhunter",
      "genre_ids": [
        80,
        18
      ],
      "name": "Mindhunter",
      "popularity": 89.059,
      "origin_country": [
        "US"
      ],
      "vote_count": 405,
      "first_air_date": "2017-10-13",
      "backdrop_path": "/a906PH7CDmSOdS7kmnAgdWk5mhv.jpg",
      "original_language": "en",
      "id": 67744,
      "vote_average": 7.4,
      "overview": "Un agent de l'unité d'élite du FBI dédiée aux crimes en série développe des techniques de profilage alors qu'il poursuit de notoires violeurs et assassins.",
      "poster_path": "/r7RIwuceOaDP4KTmU1EFeDniRq4.jpg"
    },
    {
      "original_name": "The Walking Dead",
      "genre_ids": [
        18,
        10759,
        10765
      ],
      "name": "The Walking Dead",
      "popularity": 78.887,
      "origin_country": [
        "US"
      ],
      "vote_count": 3494,
      "first_air_date": "2010-10-31",
      "backdrop_path": "/xVzvD5BPAU4HpleFSo8QOdHkndo.jpg",
      "original_language": "en",
      "id": 1402,
      "vote_average": 7.3,
      "overview": "Après une apocalypse ayant transformé la quasi-totalité de la population en zombies, un groupe d'hommes et de femmes mené par l'officier Rick Grimes tente de survivre...",
      "poster_path": "/vxuoMW6YBt6UsxvMfRNwRl9LtWS.jpg"
    },
    {
      "original_name": "The Missing",
      "genre_ids": [
        18,
        9648
      ],
      "name": "The Missing",
      "popularity": 73.657,
      "origin_country": [
        "GB"
      ],
      "vote_count": 117,
      "first_air_date": "2014-10-28",
      "backdrop_path": "/2hF2RnjVwHvxfhH2lkB9H9FdQHb.jpg",
      "original_language": "en",
      "id": 61555,
      "vote_average": 6.8,
      "overview": "Chaque saison, une nouvelle intrigue, des nouveaux personnages, une nouvelle enquête sur une personne disparue...",
      "poster_path": "/w1FDeOGoFS1qsSRHlj2Jzp2P0e1.jpg"
    },
    {
      "original_name": "Elementary",
      "genre_ids": [
        80,
        18,
        9648
      ],
      "name": "Elementary",
      "popularity": 72.475,
      "origin_country": [
        "US"
      ],
      "vote_count": 498,
      "first_air_date": "2012-09-27",
      "backdrop_path": "/7sJrNKwzyJWnFPFpDL9wnZ859LZ.jpg",
      "original_language": "en",
      "id": 1415,
      "vote_average": 7.1,
      "overview": "Une version moderne des aventures de Sherlock Holmes dans le New York contemporain.Renvoyé de Londres en raison de son addiction à l'alcool, Sherlock s'installe à Manhattan où son richissime paternel l'oblige à cohabiter avec son pire cauchemar : une personne sobre chargée de veiller sur lui. Ancienne chirurgienne promise à un bel avenir, Joan Watson a perdu un patient et sa licence trois ans plus tôt. Ce nouvel emploi est pour elle une nouvelle façon d'aider les autres, et surtout une pénitence qu'elle s'impose. Quand Sherlock devient consultant pour la police new-yorkaise, Watson n'a d'autre choix que suivre son irascible \"client\" lors de ses investigations. Très vite, ils réalisent l'un et l'autre les avantages que peut leur apporter un tel partenariat.",
      "poster_path": "/q9dObe29W4bDpgzUfOOH3ZnzDbR.jpg"
    },
    {
      "original_name": "Supernatural",
      "genre_ids": [
        18,
        9648,
        10765
      ],
      "name": "Supernatural",
      "popularity": 63.499,
      "origin_country": [
        "US"
      ],
      "vote_count": 1492,
      "first_air_date": "2005-09-13",
      "backdrop_path": "/koMUCyGWNtH5LXYbGqjsUwvgtsT.jpg",
      "original_language": "en",
      "id": 1622,
      "vote_average": 7.2,
      "overview": "Deux frères, Sam et Dean Winchester, chasseurs de créatures surnaturelles, sillonnent les États-Unis à bord d'une Chevrolet Impala noire de 1967 et enquêtent sur des phénomènes paranormaux (souvent issus du folklore, des superstitions, mythes et légendes urbaines américaines, mais aussi des monstres surnaturels tels que les fantômes, loups-garous, démons, vampires…).",
      "poster_path": "/3iFm6Kz7iYoFaEcj4fLyZHAmTQA.jpg"
    },
    {
      "original_name": "Salvation",
      "genre_ids": [
        18,
        10765
      ],
      "name": "Salvation",
      "popularity": 62.468,
      "origin_country": [
        "US"
      ],
      "vote_count": 102,
      "first_air_date": "2017-07-12",
      "backdrop_path": "/ssGSTLM7fKYuz4HkgQLox8m7rlx.jpg",
      "original_language": "en",
      "id": 70513,
      "vote_average": 6.5,
      "overview": "Darius Tanz, un pro de la technologie, et Liam Cole, un étudiant diplômé d’ingénierie, font une découverte stupéfiante : un astéroïde entrera en collision avec la Terre dans moins de 6 mois.",
      "poster_path": "/hXCd9FUT7ZjoB390cGioVhEiXOB.jpg"
    },
    {
      "original_name": "Marvel's Agents of S.H.I.E.L.D.",
      "genre_ids": [
        18,
        10759,
        10765
      ],
      "name": "Marvel : Les Agents du S.H.I.E.L.D.",
      "popularity": 61.086,
      "origin_country": [
        "US"
      ],
      "vote_count": 1113,
      "first_air_date": "2013-09-24",
      "backdrop_path": "/qtr5i6hOm6oVzTYl3jOQAYP3oc7.jpg",
      "original_language": "en",
      "id": 1403,
      "vote_average": 6.7,
      "overview": "Suite aux évènements survenus dans THE AVENGERS, l'agent Phil Coulson retourne au sein de l'organisation mondiale du maintien de l'ordre, le S.H.I.E.L.D., pour y mettre sur pied une petite équipe d'agents extrêmement bien entraînés afin de s'attaquer aux affaires non encore classées ayant un trait aux phénomènes nouveaux, étranges et inconnus. Constistuée du très intègre agent Grant Ward, expert en combat et renseignements, de l'agent Melinda May, pilote émérite et experte en arts martiaux et des très brillants, si ce n'est un peu étranges socialement, agents scientifiques Leo Fitz et Jemma Simmons, l'équipe sera épaulée par Skye, nouvelle recrue civile, hacker et fan de super-héros.",
      "poster_path": "/xjm6uVktPuKXNILwjLXwVG5d5BU.jpg"
    },
    {
      "original_name": "The Simpsons",
      "genre_ids": [
        16,
        35
      ],
      "name": "Les Simpson",
      "popularity": 56.325,
      "origin_country": [
        "US"
      ],
      "vote_count": 1527,
      "first_air_date": "1989-12-17",
      "backdrop_path": "/f5uNbUC76oowt5mt5J9QlqrIYQ6.jpg",
      "original_language": "en",
      "id": 456,
      "vote_average": 7.1,
      "overview": "Les Simpson, famille américaine moyenne, vivent à Springfield. Homer, le père, a deux passions : regarder la télé et boire des bières. Mais son quotidien est rarement reposant, entre son fils Bart qui fait toutes les bêtises possibles, sa fille Lisa qui est une surdouée, ou encore sa femme Marge qui ne supporte pas de le voir se soûler à longueur de journée.",
      "poster_path": "/tptIMKRPHPEnnlzSgzvJIF1Rguk.jpg"
    },
    {
      "original_name": "Suits",
      "genre_ids": [
        18
      ],
      "name": "Suits : Avocats sur Mesure",
      "popularity": 55.185,
      "origin_country": [
        "US"
      ],
      "vote_count": 715,
      "first_air_date": "2011-06-23",
      "backdrop_path": "/iU2cObod4GoHAcgrc5AtfwIVizL.jpg",
      "original_language": "en",
      "id": 37680,
      "vote_average": 7.5,
      "overview": "Harvey Specter est l'un des meilleurs avocats de New York. Fraîchement nommé associé senior du cabinet Pearson Hardman, il doit se trouver un collaborateur. Alors que toute l'élite d'Harvard rêve de ce poste, son choix se porte sur Mike Ross, un petit génie à la mémoire photographique, sans diplôme. Une embauche qui pourrait coûter leur carrière aux deux nouveaux associés.",
      "poster_path": "/dE5s2yagw4CNOSznMwn0LMBmPbx.jpg"
    },
    {
      "original_name": "Alias",
      "id": 2046,
      "name": "Alias",
      "popularity": 54.069,
      "vote_count": 221,
      "vote_average": 6,
      "first_air_date": "2001-09-30",
      "poster_path": "/bMj6iM7TBcceG44vpireA2Axeab.jpg",
      "genre_ids": [
        18,
        10759
      ],
      "original_language": "en",
      "backdrop_path": "/uqu5SuPIr0VQPqXF7CuGY3j2431.jpg",
      "overview": "Sydney est une étudiante bien studieuse la journée qui se transforme en redoutable agent secret dès que la nuit tombe. Elle a été recrutée en première année par la CIA. Ce qui lui vaut des missions périlleuses aux quatre coins du monde. Mais Sydney ira de désillusions en désillusions et découvrira qu'elle ne travaille pas pour la CIA, mais pour une organisation nommée SD6, qui mène des missions terroristes. Apprenant qu'elle travaille pour ceux qu'elle croyait combattre et désireuse de se venger, elle intègre la CIA et devient agent double ...",
      "origin_country": [
        "US"
      ]
    },
    {
      "original_name": "Game of Thrones",
      "genre_ids": [
        18,
        10759,
        10765
      ],
      "name": "Game of Thrones",
      "popularity": 53.516,
      "origin_country": [
        "US"
      ],
      "vote_count": 4631,
      "first_air_date": "2011-04-17",
      "backdrop_path": "/gX8SYlnL9ZznfZwEH4KJUePBFUM.jpg",
      "original_language": "en",
      "id": 1399,
      "vote_average": 8.2,
      "overview": "Il y a très longtemps, à une époque oubliée, une force a détruit l'équilibre des saisons. Dans un pays où l'été peut durer plusieurs années et l'hiver toute une vie, des forces sinistres et surnaturelles se pressent aux portes du Royaume des Sept Couronnes. La confrérie de la Garde de Nuit, protégeant le Royaume de toute créature pouvant provenir d'au-delà du Mur protecteur, n'a plus les ressources nécessaires pour assurer la sécurité de tous. Après un été de dix années, un hiver rigoureux s'abat sur le Royaume avec la promesse d'un avenir des plus sombres. Pendant ce temps, complots et rivalités se jouent sur le continent pour s'emparer du Trône de fer, le symbole du pouvoir absolu.",
      "poster_path": "/3iYNC7Iw6a65ed5GZz7KbInSHBd.jpg"
    },
    {
      "original_name": "Law & Order: Special Victims Unit",
      "genre_ids": [
        80,
        18
      ],
      "name": "New York Unité Spéciale",
      "popularity": 53.261,
      "origin_country": [
        "US"
      ],
      "vote_count": 473,
      "first_air_date": "1999-09-20",
      "backdrop_path": "/kOvt2BOOwSAQCT8yo3pM3X2GXjh.jpg",
      "original_language": "en",
      "id": 2734,
      "vote_average": 6.2,
      "overview": "\"Dans le système judiciaire, les crimes sexuels sont considérés comme particulièrement monstrueux. À New York, les inspecteurs qui enquêtent sur ces crimes sont membres d'une unité d'élite appelée Unité spéciale pour les victimes. Voici leurs histoires \"\n\nUne unité spéciale de la police de New York enquête sur des crimes à connotations sexuelles en prenant en charge les victimes.",
      "poster_path": "/5KfFnPRIgxan2eJ7XxMkucpq8VI.jpg"
    },
    {
      "original_name": "Westworld",
      "id": 63247,
      "name": "Westworld",
      "popularity": 51.503,
      "vote_count": 1468,
      "vote_average": 8.1,
      "first_air_date": "2016-10-02",
      "poster_path": "/fz2OyyZg4qLKiWRu3pmcbXEuxzm.jpg",
      "genre_ids": [
        878,
        37
      ],
      "original_language": "en",
      "backdrop_path": "/yp94aOXzuqcQHva90B3jxLfnOO9.jpg",
      "overview": "Un parc d'attractions peuplé de robots propose aux visiteurs de se replonger dans plusieurs époques. Lancés dans l'ouest sauvage, deux amis se retrouvent plongés en plein cauchemar quand l'un des androïdes se détraque et les prend en chasse...",
      "origin_country": [
        "US"
      ]
    },
    {
      "original_name": "The Originals",
      "genre_ids": [
        18,
        9648,
        10765
      ],
      "name": "The Originals",
      "popularity": 51.279,
      "origin_country": [
        "US"
      ],
      "vote_count": 306,
      "first_air_date": "2013-10-03",
      "backdrop_path": "/7crHhmTybBvGQ3Y96j4kdQ89ldY.jpg",
      "original_language": "en",
      "id": 46896,
      "vote_average": 7.3,
      "overview": "Le vampire originel Klaus fait son retour au Vieux Carré, un quartier français de la Nouvelle Orléans. Dans cette ville qu’il a aidé à construire quelques siècles plus tôt, il y retrouve son ancien protégé, le diabolique et charismatique Marcel. Dans l’espoir d’aider son jeune frère à trouver la rédemption, Elijah est contraint de s’allier avec des ennemis de Marcel...",
      "poster_path": "/dDkTZMJHauC4IeO5YyLS7zuIPaP.jpg"
    },
    {
      "original_name": "The Flash",
      "genre_ids": [
        18,
        10765
      ],
      "name": "Flash",
      "popularity": 49.926,
      "origin_country": [
        "US"
      ],
      "vote_count": 2168,
      "first_air_date": "2014-10-07",
      "backdrop_path": "/mmxxEpTqVdwBlu5Pii7tbedBkPC.jpg",
      "original_language": "en",
      "id": 60735,
      "vote_average": 6.7,
      "overview": "Jeune expert de la police scientifique de Central City, Barry Allen se retrouve doté d'une vitesse extraordinaire après avoir été frappé par la foudre. Sous le costume de Flash, il utilise ses nouveaux pouvoirs pour combattre le crime.",
      "poster_path": "/lUFK7ElGCk9kVEryDJHICeNdmd1.jpg"
    },
    {
      "original_name": "Power",
      "genre_ids": [
        80,
        18
      ],
      "name": "Power",
      "popularity": 48.218,
      "origin_country": [
        "US"
      ],
      "vote_count": 493,
      "first_air_date": "2014-06-07",
      "backdrop_path": "/D2DL5b9HBAy9jST2ZaDJLNHEsY.jpg",
      "original_language": "en",
      "id": 54650,
      "vote_average": 7.5,
      "overview": "Propriétaire d’un nightclub new-yorkais très populaire, James \"Ghost\" St. Patrick entend développer son empire. Seulement sa double-vie à la tête d'un des réseaux de drogue les plus importants de la ville pourrait devenir un handicap. Vouloir mettre un terme à sa carrière de criminel risque de mettre en danger son mariage, sa famille et ses affaires.",
      "poster_path": "/prQZ1NiS1GDSH35F1e03PKhLKnL.jpg"
    },
    {
      "original_name": "Marvel's Iron Fist",
      "genre_ids": [
        80,
        18,
        10759,
        10765
      ],
      "name": "Marvel's Iron Fist",
      "popularity": 48.11,
      "origin_country": [
        "US"
      ],
      "vote_count": 581,
      "first_air_date": "2017-03-17",
      "backdrop_path": "/xHCfWGlxwbtMeeOnTvxUCZRGnkk.jpg",
      "original_language": "en",
      "id": 62127,
      "vote_average": 6.1,
      "overview": "Alors qu'il était présumé mort, Danny Rand refait surface 15 ans plus tard. Avec le pouvoir de son poing d'acier, il va renouer avec le passé et accomplir sa destinée.",
      "poster_path": "/nv4nLXbDhcISPP8C1mgaxKU50KO.jpg"
    },
    {
      "original_name": "Doctor Who",
      "genre_ids": [
        18,
        10759,
        10765
      ],
      "name": "Doctor Who",
      "popularity": 47.86,
      "origin_country": [
        "GB"
      ],
      "vote_count": 1160,
      "first_air_date": "2005-03-26",
      "backdrop_path": "/tQkigP2fItdzJWvtIhBvHxgs5yE.jpg",
      "original_language": "en",
      "id": 57243,
      "vote_average": 7,
      "overview": "Dernier descendant des Seigneur du Temps et âgé de plus de 900 ans, Le Docteur parcourt l'espace et le temps dans son TARDIS (Time And Relative Dimension In Space). Amoureux de la race humaine, il se fait régulièrement accompagner par une femme ou un homme. Partagé entre folie et génie, insouciant mais conscient de ses responsabilités, il défendra l'humanité quel que soit le prix à payer.",
      "poster_path": "/cFcZYgPRFZdBkA7EsxHz5Cb8x5.jpg"
    }
  ]
}
